{
  "name": "BillingCurrency",
  "base": "PersistedModel",
  "idInjection": true,
  "options": {
    "validateUpsert": true
  },
  "properties": {
    "name": {
      "type": "string",
      "required": true
    },
    "symbol": {
      "type": "string",
      "required": true
    }
  },
  "validations": [],
  "relations": {
    "billing_currency_id": {
      "type": "hasMany",
      "model": "BillingGroup",
      "foreignKey": "billing_currency_id"
    }
  },
  "acls": [],
  "methods": {}
}
