{
  "name": "BillingCycleType",
  "plural": "BillingCycleTypes",
  "base": "PersistedModel",
  "idInjection": true,
  "options": {
    "validateUpsert": true
  },
  "properties": {
    "name": {
      "type": "string",
      "required": true
    }
  },
  "validations": [],
  "relations": {
    "billing_cycle_type_id": {
      "type": "hasMany",
      "model": "BillingTransaction",
      "foreignKey": "billingCycleTypeId"
    }
  },
  "acls": [],
  "methods": {}
}
